{
    "annotations": {
        "list": [
            {
                "builtIn": 1,
                "datasource": {
                    "type": "grafana",
                    "uid": "-- Grafana --"
                },
                "enable": true,
                "hide": true,
                "iconColor": "rgba(0, 211, 255, 1)",
                "name": "Annotations & Alerts",
                "type": "dashboard"
            }
        ]
    },
    "editable": true,
    "fiscalYearStartMonth": 0,
    "graphTooltip": 1,
    "id": 1,
    "links": [],
    "liveNow": false,
    "panels": [
        {
            "datasource": {
                "type": "prometheus",
                "uid": "e9e0f2e1-c4c9-417f-a9ce-bbde49e3ee64"
            },
            "fieldConfig": {
                "defaults": {
                    "color": {
                        "mode": "palette-classic"
                    },
                    "custom": {
                        "axisCenteredZero": false,
                        "axisColorMode": "text",
                        "axisLabel": "",
                        "axisPlacement": "auto",
                        "barAlignment": 0,
                        "drawStyle": "line",
                        "fillOpacity": 0,
                        "gradientMode": "none",
                        "hideFrom": {
                            "legend": false,
                            "tooltip": false,
                            "viz": false
                        },
                        "lineInterpolation": "linear",
                        "lineWidth": 1,
                        "pointSize": 5,
                        "scaleDistribution": {
                            "type": "linear"
                        },
                        "showPoints": "auto",
                        "spanNulls": false,
                        "stacking": {
                            "group": "A",
                            "mode": "none"
                        },
                        "thresholdsStyle": {
                            "mode": "off"
                        }
                    },
                    "mappings": [],
                    "thresholds": {
                        "mode": "absolute",
                        "steps": [
                            {
                                "color": "green",
                                "value": null
                            },
                            {
                                "color": "red",
                                "value": 80
                            }
                        ]
                    }
                },
                "overrides": []
            },
            "gridPos": {
                "h": 8,
                "w": 8,
                "x": 0,
                "y": 0
            },
            "id": 2,
            "options": {
                "legend": {
                    "calcs": [],
                    "displayMode": "list",
                    "placement": "bottom",
                    "showLegend": false
                },
                "tooltip": {
                    "mode": "single",
                    "sort": "none"
                }
            },
            "targets": [
                {
                    "datasource": {
                        "type": "prometheus",
                        "uid": "e9e0f2e1-c4c9-417f-a9ce-bbde49e3ee64"
                    },
                    "editorMode": "builder",
                    "expr": "redis_connected_clients",
                    "instant": false,
                    "range": true,
                    "refId": "A"
                }
            ],
            "title": "Redis Connections",
            "type": "timeseries"
        },
        {
            "datasource": {
                "type": "prometheus",
                "uid": "e9e0f2e1-c4c9-417f-a9ce-bbde49e3ee64"
            },
            "fieldConfig": {
                "defaults": {
                    "color": {
                        "mode": "palette-classic"
                    },
                    "custom": {
                        "axisCenteredZero": false,
                        "axisColorMode": "text",
                        "axisLabel": "",
                        "axisPlacement": "auto",
                        "barAlignment": 0,
                        "drawStyle": "line",
                        "fillOpacity": 0,
                        "gradientMode": "none",
                        "hideFrom": {
                            "legend": false,
                            "tooltip": false,
                            "viz": false
                        },
                        "lineInterpolation": "linear",
                        "lineWidth": 1,
                        "pointSize": 5,
                        "scaleDistribution": {
                            "type": "linear"
                        },
                        "showPoints": "auto",
                        "spanNulls": false,
                        "stacking": {
                            "group": "A",
                            "mode": "none"
                        },
                        "thresholdsStyle": {
                            "mode": "off"
                        }
                    },
                    "mappings": [],
                    "thresholds": {
                        "mode": "absolute",
                        "steps": [
                            {
                                "color": "green",
                                "value": null
                            },
                            {
                                "color": "red",
                                "value": 80
                            }
                        ]
                    },
                    "unit": "reqps"
                },
                "overrides": []
            },
            "gridPos": {
                "h": 8,
                "w": 8,
                "x": 8,
                "y": 0
            },
            "id": 7,
            "options": {
                "legend": {
                    "calcs": [],
                    "displayMode": "list",
                    "placement": "bottom",
                    "showLegend": true
                },
                "tooltip": {
                    "mode": "single",
                    "sort": "none"
                }
            },
            "targets": [
                {
                    "datasource": {
                        "type": "prometheus",
                        "uid": "e9e0f2e1-c4c9-417f-a9ce-bbde49e3ee64"
                    },
                    "editorMode": "builder",
                    "expr": "rate(redis_commands_total{cmd=~\"get|set\"}[$__rate_interval])",
                    "instant": false,
                    "legendFormat": "{{cmd}}",
                    "range": true,
                    "refId": "A"
                }
            ],
            "title": "Redis Requests/Sec",
            "type": "timeseries"
        },
        {
            "datasource": {
                "type": "prometheus",
                "uid": "e9e0f2e1-c4c9-417f-a9ce-bbde49e3ee64"
            },
            "fieldConfig": {
                "defaults": {
                    "color": {
                        "mode": "palette-classic"
                    },
                    "custom": {
                        "axisCenteredZero": false,
                        "axisColorMode": "text",
                        "axisLabel": "",
                        "axisPlacement": "auto",
                        "barAlignment": 0,
                        "drawStyle": "line",
                        "fillOpacity": 0,
                        "gradientMode": "none",
                        "hideFrom": {
                            "legend": false,
                            "tooltip": false,
                            "viz": false
                        },
                        "lineInterpolation": "linear",
                        "lineWidth": 1,
                        "pointSize": 5,
                        "scaleDistribution": {
                            "type": "linear"
                        },
                        "showPoints": "auto",
                        "spanNulls": false,
                        "stacking": {
                            "group": "A",
                            "mode": "none"
                        },
                        "thresholdsStyle": {
                            "mode": "dashed"
                        }
                    },
                    "mappings": [],
                    "thresholds": {
                        "mode": "absolute",
                        "steps": [
                            {
                                "color": "green",
                                "value": null
                            },
                            {
                                "color": "red",
                                "value": 3600000
                            }
                        ]
                    }
                },
                "overrides": []
            },
            "gridPos": {
                "h": 8,
                "w": 8,
                "x": 16,
                "y": 0
            },
            "id": 3,
            "options": {
                "legend": {
                    "calcs": [],
                    "displayMode": "list",
                    "placement": "bottom",
                    "showLegend": false
                },
                "tooltip": {
                    "mode": "single",
                    "sort": "none"
                }
            },
            "targets": [
                {
                    "datasource": {
                        "type": "prometheus",
                        "uid": "e9e0f2e1-c4c9-417f-a9ce-bbde49e3ee64"
                    },
                    "editorMode": "builder",
                    "expr": "redis_db_keys{db=\"db0\"}",
                    "instant": false,
                    "range": true,
                    "refId": "A"
                }
            ],
            "title": "Redis Key Count",
            "type": "timeseries"
        },
        {
            "datasource": {
                "type": "prometheus",
                "uid": "e9e0f2e1-c4c9-417f-a9ce-bbde49e3ee64"
            },
            "fieldConfig": {
                "defaults": {
                    "color": {
                        "mode": "palette-classic"
                    },
                    "custom": {
                        "axisCenteredZero": false,
                        "axisColorMode": "text",
                        "axisLabel": "",
                        "axisPlacement": "auto",
                        "barAlignment": 0,
                        "drawStyle": "line",
                        "fillOpacity": 0,
                        "gradientMode": "none",
                        "hideFrom": {
                            "legend": false,
                            "tooltip": false,
                            "viz": false
                        },
                        "lineInterpolation": "linear",
                        "lineWidth": 1,
                        "pointSize": 5,
                        "scaleDistribution": {
                            "type": "linear"
                        },
                        "showPoints": "auto",
                        "spanNulls": false,
                        "stacking": {
                            "group": "A",
                            "mode": "none"
                        },
                        "thresholdsStyle": {
                            "mode": "off"
                        }
                    },
                    "mappings": [],
                    "thresholds": {
                        "mode": "absolute",
                        "steps": [
                            {
                                "color": "green",
                                "value": null
                            },
                            {
                                "color": "red",
                                "value": 80
                            }
                        ]
                    },
                    "unit": "µs"
                },
                "overrides": []
            },
            "gridPos": {
                "h": 8,
                "w": 12,
                "x": 0,
                "y": 8
            },
            "id": 4,
            "options": {
                "legend": {
                    "calcs": [],
                    "displayMode": "list",
                    "placement": "bottom",
                    "showLegend": true
                },
                "tooltip": {
                    "mode": "single",
                    "sort": "none"
                }
            },
            "targets": [
                {
                    "datasource": {
                        "type": "prometheus",
                        "uid": "e9e0f2e1-c4c9-417f-a9ce-bbde49e3ee64"
                    },
                    "editorMode": "builder",
                    "expr": "histogram_quantile(0.95, sum by(le, cmd) (rate(redis_commands_latencies_usec_bucket{cmd=~\"get|set\"}[$__rate_interval])))",
                    "instant": false,
                    "legendFormat": "{{cmd}} P95",
                    "range": true,
                    "refId": "A"
                },
                {
                    "datasource": {
                        "type": "prometheus",
                        "uid": "e9e0f2e1-c4c9-417f-a9ce-bbde49e3ee64"
                    },
                    "editorMode": "builder",
                    "expr": "histogram_quantile(0.9, sum by(le, cmd) (rate(redis_commands_latencies_usec_bucket{cmd=~\"get|set\"}[$__rate_interval])))",
                    "hide": false,
                    "instant": false,
                    "legendFormat": "{{cmd}} P90",
                    "range": true,
                    "refId": "B"
                },
                {
                    "datasource": {
                        "type": "prometheus",
                        "uid": "e9e0f2e1-c4c9-417f-a9ce-bbde49e3ee64"
                    },
                    "editorMode": "builder",
                    "expr": "histogram_quantile(0.5, sum by(le, cmd) (rate(redis_commands_latencies_usec_bucket{cmd=~\"get|set\"}[$__rate_interval])))",
                    "hide": false,
                    "instant": false,
                    "legendFormat": "{{cmd}} P50",
                    "range": true,
                    "refId": "C"
                }
            ],
            "title": "Redis Average Command Duration",
            "type": "timeseries"
        },
        {
            "datasource": {
                "type": "prometheus",
                "uid": "e9e0f2e1-c4c9-417f-a9ce-bbde49e3ee64"
            },
            "fieldConfig": {
                "defaults": {
                    "color": {
                        "mode": "palette-classic"
                    },
                    "custom": {
                        "axisCenteredZero": false,
                        "axisColorMode": "text",
                        "axisLabel": "",
                        "axisPlacement": "auto",
                        "barAlignment": 0,
                        "drawStyle": "line",
                        "fillOpacity": 0,
                        "gradientMode": "none",
                        "hideFrom": {
                            "legend": false,
                            "tooltip": false,
                            "viz": false
                        },
                        "lineInterpolation": "linear",
                        "lineWidth": 1,
                        "pointSize": 5,
                        "scaleDistribution": {
                            "type": "linear"
                        },
                        "showPoints": "auto",
                        "spanNulls": false,
                        "stacking": {
                            "group": "A",
                            "mode": "none"
                        },
                        "thresholdsStyle": {
                            "mode": "off"
                        }
                    },
                    "mappings": [],
                    "thresholds": {
                        "mode": "absolute",
                        "steps": [
                            {
                                "color": "green",
                                "value": null
                            },
                            {
                                "color": "red",
                                "value": 80
                            }
                        ]
                    },
                    "unit": "percentunit"
                },
                "overrides": []
            },
            "gridPos": {
                "h": 8,
                "w": 12,
                "x": 12,
                "y": 8
            },
            "id": 5,
            "options": {
                "legend": {
                    "calcs": [],
                    "displayMode": "list",
                    "placement": "bottom",
                    "showLegend": false
                },
                "tooltip": {
                    "mode": "single",
                    "sort": "none"
                }
            },
            "targets": [
                {
                    "datasource": {
                        "type": "prometheus",
                        "uid": "e9e0f2e1-c4c9-417f-a9ce-bbde49e3ee64"
                    },
                    "editorMode": "builder",
                    "expr": "rate(redis_keyspace_hits_total[$__rate_interval])",
                    "hide": true,
                    "instant": false,
                    "legendFormat": "Hit",
                    "range": true,
                    "refId": "A"
                },
                {
                    "datasource": {
                        "type": "prometheus",
                        "uid": "e9e0f2e1-c4c9-417f-a9ce-bbde49e3ee64"
                    },
                    "editorMode": "builder",
                    "expr": "rate(redis_keyspace_misses_total[$__rate_interval])",
                    "hide": true,
                    "instant": false,
                    "legendFormat": "Miss",
                    "range": true,
                    "refId": "B"
                },
                {
                    "datasource": {
                        "name": "Expression",
                        "type": "__expr__",
                        "uid": "__expr__"
                    },
                    "expression": "$A/($A+$B)",
                    "hide": false,
                    "refId": "C",
                    "type": "math"
                }
            ],
            "title": "Redis GET hit ratio",
            "type": "timeseries"
        },
        {
            "datasource": {
                "type": "prometheus",
                "uid": "e9e0f2e1-c4c9-417f-a9ce-bbde49e3ee64"
            },
            "fieldConfig": {
                "defaults": {
                    "color": {
                        "mode": "palette-classic"
                    },
                    "custom": {
                        "axisCenteredZero": false,
                        "axisColorMode": "text",
                        "axisLabel": "",
                        "axisPlacement": "auto",
                        "barAlignment": 0,
                        "drawStyle": "line",
                        "fillOpacity": 0,
                        "gradientMode": "none",
                        "hideFrom": {
                            "legend": false,
                            "tooltip": false,
                            "viz": false
                        },
                        "lineInterpolation": "linear",
                        "lineWidth": 1,
                        "pointSize": 5,
                        "scaleDistribution": {
                            "type": "linear"
                        },
                        "showPoints": "auto",
                        "spanNulls": false,
                        "stacking": {
                            "group": "A",
                            "mode": "none"
                        },
                        "thresholdsStyle": {
                            "mode": "off"
                        }
                    },
                    "mappings": [],
                    "thresholds": {
                        "mode": "absolute",
                        "steps": [
                            {
                                "color": "green",
                                "value": null
                            },
                            {
                                "color": "red",
                                "value": 80
                            }
                        ]
                    },
                    "unit": "ms"
                },
                "overrides": []
            },
            "gridPos": {
                "h": 14,
                "w": 12,
                "x": 0,
                "y": 16
            },
            "id": 1,
            "options": {
                "legend": {
                    "calcs": [],
                    "displayMode": "list",
                    "placement": "bottom",
                    "showLegend": true
                },
                "tooltip": {
                    "mode": "single",
                    "sort": "none"
                }
            },
            "targets": [
                {
                    "datasource": {
                        "type": "prometheus",
                        "uid": "e9e0f2e1-c4c9-417f-a9ce-bbde49e3ee64"
                    },
                    "editorMode": "builder",
                    "expr": "histogram_quantile(0.5, sum by(le) (rate(get_duration_total_msec_bucket[$__rate_interval])))",
                    "instant": false,
                    "legendFormat": "P50",
                    "range": true,
                    "refId": "A"
                },
                {
                    "datasource": {
                        "type": "prometheus",
                        "uid": "e9e0f2e1-c4c9-417f-a9ce-bbde49e3ee64"
                    },
                    "editorMode": "builder",
                    "expr": "histogram_quantile(0.9, sum by(le) (rate(get_duration_total_msec_bucket[$__rate_interval])))",
                    "hide": false,
                    "instant": false,
                    "legendFormat": "P90",
                    "range": true,
                    "refId": "B"
                },
                {
                    "datasource": {
                        "type": "prometheus",
                        "uid": "e9e0f2e1-c4c9-417f-a9ce-bbde49e3ee64"
                    },
                    "editorMode": "builder",
                    "expr": "histogram_quantile(0.95, sum by(le) (rate(get_duration_total_msec_bucket[$__rate_interval])))",
                    "hide": false,
                    "instant": false,
                    "legendFormat": "P95",
                    "range": true,
                    "refId": "C"
                },
                {
                    "datasource": {
                        "type": "prometheus",
                        "uid": "e9e0f2e1-c4c9-417f-a9ce-bbde49e3ee64"
                    },
                    "editorMode": "builder",
                    "expr": "histogram_quantile(0.99, sum by(le) (rate(get_duration_total_msec_bucket[$__rate_interval])))",
                    "hide": false,
                    "instant": false,
                    "legendFormat": "P99",
                    "range": true,
                    "refId": "D"
                }
            ],
            "title": "GET Duration (Client's Perspective)",
            "type": "timeseries"
        },
        {
            "datasource": {
                "type": "prometheus",
                "uid": "e9e0f2e1-c4c9-417f-a9ce-bbde49e3ee64"
            },
            "fieldConfig": {
                "defaults": {
                    "color": {
                        "mode": "palette-classic"
                    },
                    "custom": {
                        "axisCenteredZero": false,
                        "axisColorMode": "text",
                        "axisLabel": "",
                        "axisPlacement": "auto",
                        "barAlignment": 0,
                        "drawStyle": "line",
                        "fillOpacity": 0,
                        "gradientMode": "none",
                        "hideFrom": {
                            "legend": false,
                            "tooltip": false,
                            "viz": false
                        },
                        "lineInterpolation": "linear",
                        "lineWidth": 1,
                        "pointSize": 5,
                        "scaleDistribution": {
                            "type": "linear"
                        },
                        "showPoints": "auto",
                        "spanNulls": false,
                        "stacking": {
                            "group": "A",
                            "mode": "none"
                        },
                        "thresholdsStyle": {
                            "mode": "off"
                        }
                    },
                    "mappings": [],
                    "thresholds": {
                        "mode": "absolute",
                        "steps": [
                            {
                                "color": "green",
                                "value": null
                            },
                            {
                                "color": "red",
                                "value": 80
                            }
                        ]
                    },
                    "unit": "ms"
                },
                "overrides": []
            },
            "gridPos": {
                "h": 14,
                "w": 12,
                "x": 12,
                "y": 16
            },
            "id": 6,
            "options": {
                "legend": {
                    "calcs": [],
                    "displayMode": "list",
                    "placement": "bottom",
                    "showLegend": true
                },
                "tooltip": {
                    "mode": "single",
                    "sort": "none"
                }
            },
            "targets": [
                {
                    "datasource": {
                        "type": "prometheus",
                        "uid": "e9e0f2e1-c4c9-417f-a9ce-bbde49e3ee64"
                    },
                    "editorMode": "builder",
                    "expr": "histogram_quantile(0.5, sum by(le) (rate(set_duration_total_msec_bucket[$__rate_interval])))",
                    "instant": false,
                    "legendFormat": "P50",
                    "range": true,
                    "refId": "A"
                },
                {
                    "datasource": {
                        "type": "prometheus",
                        "uid": "e9e0f2e1-c4c9-417f-a9ce-bbde49e3ee64"
                    },
                    "editorMode": "builder",
                    "expr": "histogram_quantile(0.9, sum by(le) (rate(set_duration_total_msec_bucket[$__rate_interval])))",
                    "hide": false,
                    "instant": false,
                    "legendFormat": "P90",
                    "range": true,
                    "refId": "B"
                },
                {
                    "datasource": {
                        "type": "prometheus",
                        "uid": "e9e0f2e1-c4c9-417f-a9ce-bbde49e3ee64"
                    },
                    "editorMode": "builder",
                    "expr": "histogram_quantile(0.95, sum by(le) (rate(set_duration_total_msec_bucket[$__rate_interval])))",
                    "hide": false,
                    "instant": false,
                    "legendFormat": "P95",
                    "range": true,
                    "refId": "C"
                },
                {
                    "datasource": {
                        "type": "prometheus",
                        "uid": "e9e0f2e1-c4c9-417f-a9ce-bbde49e3ee64"
                    },
                    "editorMode": "builder",
                    "expr": "histogram_quantile(0.99, sum by(le) (rate(set_duration_total_msec_bucket[$__rate_interval])))",
                    "hide": false,
                    "instant": false,
                    "legendFormat": "P99",
                    "range": true,
                    "refId": "D"
                }
            ],
            "title": "SET Duration (Client's Perspective)",
            "type": "timeseries"
        }
    ],
    "refresh": "10s",
    "schemaVersion": 38,
    "style": "dark",
    "tags": [],
    "templating": {
        "list": []
    },
    "time": {
        "from": "now-90m",
        "to": "now"
    },
    "timepicker": {},
    "timezone": "",
    "title": "redis loadtest",
    "uid": "a95dddfe-2a62-4f9f-8edb-409219db31d9",
    "version": 6,
    "weekStart": ""
}
